%YAML 1.1
%TAG !u! tag:unity3d.com,2011:
--- !u!13 &1
InputManager:
  m_ObjectHideFlags: 0
  serializedVersion: 2
  m_Axes:
  - serializedVersion: 3
    m_Name: Horizontal
    descriptiveName: 
    descriptiveNegativeName: 
    negativeButton: down
    positiveButton: up
    altNegativeButton: joystick button 7
    altPositiveButton: joystick button 8
    gravity: 0
    dead: .0500000007
    sensitivity: 1
    snap: 0
    invert: 0
    type: 2
    axis: 5
    joyNum: 0
  - serializedVersion: 3
    m_Name: Vertical
    descriptiveName: 
    descriptiveNegativeName: 
    negativeButton: 
    positiveButton: 
    altNegativeButton: joystick button 6
    altPositiveButton: joystick button 5
    gravity: 0
    dead: .0500000007
    sensitivity: 1
    snap: 0
    invert: 0
    type: 2
    axis: 6
    joyNum: 0
  - serializedVersion: 3
    m_Name: Player1_Horizontal
    descriptiveName: 
    descriptiveNegativeName: 
    negativeButton: a
    positiveButton: d
    altNegativeButton: 
    altPositiveButton: 
    gravity: 0
    dead: .0500000007
    sensitivity: 1
    snap: 0
    invert: 0
    type: 2
    axis: 0
    joyNum: 3
  - serializedVersion: 3
    m_Name: Player1_Vertical
    descriptiveName: 
    descriptiveNegativeName: 
    negativeButton: s
    positiveButton: w
    altNegativeButton: 
    altPositiveButton: 
    gravity: 0
    dead: .0500000007
    sensitivity: 1
    snap: 0
    invert: 1
    type: 2
    axis: 1
    joyNum: 1
  - serializedVersion: 3
    m_Name: Mouse X
    descriptiveName: 
    descriptiveNegativeName: 
    negativeButton: 
    positiveButton: 
    altNegativeButton: 
    altPositiveButton: 
    gravity: 0
    dead: 0
    sensitivity: .100000001
    snap: 0
    invert: 0
    type: 1
    axis: 0
    joyNum: 4
  - serializedVersion: 3
    m_Name: Mouse Y
    descriptiveName: 
    descriptiveNegativeName: 
    negativeButton: 
    positiveButton: 
    altNegativeButton: 
    altPositiveButton: 
    gravity: 0
    dead: 0
    sensitivity: .100000001
    snap: 0
    invert: 0
    type: 1
    axis: 1
    joyNum: 0
  - serializedVersion: 3
    m_Name: Mouse ScrollWheel
    descriptiveName: 
    descriptiveNegativeName: 
    negativeButton: 
    positiveButton: 
    altNegativeButton: 
    altPositiveButton: 
    gravity: 0
    dead: 0
    sensitivity: .100000001
    snap: 0
    invert: 0
    type: 1
    axis: 2
    joyNum: 0
  - serializedVersion: 3
    m_Name: Player2_Horizontal
    descriptiveName: 
    descriptiveNegativeName: 
    negativeButton: left
    positiveButton: right
    altNegativeButton: 
    altPositiveButton: 
    gravity: 0
    dead: .0500000007
    sensitivity: 1
    snap: 0
    invert: 0
    type: 2
    axis: 0
    joyNum: 2
  - serializedVersion: 3
    m_Name: Player2_Vertical
    descriptiveName: 
    descriptiveNegativeName: 
    negativeButton: down
    positiveButton: up
    altNegativeButton: 
    altPositiveButton: 
    gravity: 0
    dead: .0500000007
    sensitivity: 1
    snap: 0
    invert: 1
    type: 2
    axis: 1
    joyNum: 2
  - serializedVersion: 3
    m_Name: Player1_Take_Ball
    descriptiveName: 
    descriptiveNegativeName: 
    negativeButton: 
    positiveButton: joystick 1 button 0
    altNegativeButton: 
    altPositiveButton: joystick 1 button 16
    gravity: 1000
    dead: .00100000005
    sensitivity: 1000
    snap: 0
    invert: 0
    type: 0
    axis: 0
    joyNum: 1
  - serializedVersion: 3
    m_Name: Player2_Take_Ball
    descriptiveName: 
    descriptiveNegativeName: 
    negativeButton: 
    positiveButton: joystick 2 button 0
    altNegativeButton: 
    altPositiveButton: joystick 2 button 16
    gravity: 1000
    dead: .00100000005
    sensitivity: 1000
    snap: 0
    invert: 0
    type: 0
    axis: 0
    joyNum: 2
  - serializedVersion: 3
    m_Name: Player1_Spin
    descriptiveName: 
    descriptiveNegativeName: 
    negativeButton: 
    positiveButton: 
    altNegativeButton: 
    altPositiveButton: 
    gravity: 0
    dead: .0500000007
    sensitivity: 1
    snap: 0
    invert: 0
    type: 2
    axis: 2
    joyNum: 1
  - serializedVersion: 3
    m_Name: Player2_Spin
    descriptiveName: 
    descriptiveNegativeName: 
    negativeButton: 
    positiveButton: 
    altNegativeButton: 
    altPositiveButton: 
    gravity: 0
    dead: .0500000007
    sensitivity: 1
    snap: 0
    invert: 0
    type: 2
    axis: 2
    joyNum: 2
  - serializedVersion: 3
    m_Name: Submit
    descriptiveName: 
    descriptiveNegativeName: 
    negativeButton: 
    positiveButton: joystick button 0
    altNegativeButton: 
    altPositiveButton: return
    gravity: 1000
    dead: .00100000005
    sensitivity: 1000
    snap: 0
    invert: 0
    type: 0
    axis: 0
    joyNum: 0
  - serializedVersion: 3
    m_Name: Submit
    descriptiveName: 
    descriptiveNegativeName: 
    negativeButton: 
    positiveButton: joystick button 0
    altNegativeButton: 
    altPositiveButton: enter
    gravity: 1000
    dead: .00100000005
    sensitivity: 1000
    snap: 0
    invert: 0
    type: 0
    axis: 0
    joyNum: 0
  - serializedVersion: 3
    m_Name: Cancel
    descriptiveName: 
    descriptiveNegativeName: 
    negativeButton: 
    positiveButton: escape
    altNegativeButton: 
    altPositiveButton: joystick button 1
    gravity: 1000
    dead: .00100000005
    sensitivity: 1000
    snap: 0
    invert: 0
    type: 0
    axis: 0
    joyNum: 0
